module synthetic-function-generator

go 1.14

require (
	github.com/aws/aws-sdk-go v1.33.17
	github.com/gobuffalo/here v0.6.2 // indirect
	github.com/goombaio/namegenerator v0.0.0-20181006234301-989e774b106e
	github.com/gorilla/mux v1.7.4
	github.com/influxdata/tdigest v0.0.1 // indirect
	github.com/mailru/easyjson v0.7.2 // indirect
	github.com/markbates/pkger v0.17.0
	github.com/sirupsen/logrus v1.6.0
	github.com/spf13/cobra v1.0.0
	github.com/spf13/pflag v1.0.5 // indirect
	github.com/tsenart/vegeta/v12 v12.8.3
	golang.org/x/net v0.0.0-20200707034311-ab3426394381 // indirect
	golang.org/x/sys v0.1.0 // indirect
	golang.org/x/text v0.3.3 // indirect
	gopkg.in/yaml.v2 v2.3.0
)
